[gd_scene load_steps=6 format=2]

[ext_resource path="res://assets/art/rubber_duck.png" type="Texture" id=1]
[ext_resource path="res://scripts/Player.gd" type="Script" id=2]

[sub_resource type="CircleShape2D" id=1]
radius = 46.969

[sub_resource type="CircleShape2D" id=2]
radius = 42.9907

[sub_resource type="CircleShape2D" id=3]
radius = 30.9324

[node name="Player" type="KinematicBody2D"]
script = ExtResource( 2 )

[node name="Sprite" type="Sprite" parent="."]
scale = Vector2( 0.1, 0.1 )
texture = ExtResource( 1 )
centered = false

[node name="CollisionCircle" type="CollisionShape2D" parent="."]
position = Vector2( 82.825, 47.4858 )
shape = SubResource( 1 )

[node name="CollisionCircleTop" type="CollisionShape2D" parent="."]
position = Vector2( 80.8719, 42.8096 )
shape = SubResource( 2 )

[node name="CollisionCircleFront" type="CollisionShape2D" parent="."]
position = Vector2( 30.4399, 121.76 )
shape = SubResource( 3 )

[node name="CollisionPolygonMouth" type="CollisionPolygon2D" parent="."]
polygon = PoolVector2Array( 40.2435, 28.1426, 36.5673, 30.5934, 32.7549, 30.4572, 21.8623, 24.8748, 18.1861, 25.8279, 16.416, 28.551, 18.1861, 38.6266, 20.3646, 42.9837, 15.0545, 49.5192, 11.9229, 56.4632, 12.3313, 62.318, 18.1861, 70.7597, 26.6278, 77.5675, 29.6233, 79.746, 28.8063, 81.6522, 18.8669, 88.5962, 8.24663, 98.6719, 5.79581, 103.165, 56.31, 85.3285 )

[node name="CollisionPolygon2D" type="CollisionPolygon2D" parent="."]
polygon = PoolVector2Array( 23.3601, 152.318, 38.3373, 157.083, 58.897, 161.44, 98.2464, 164.299, 123.844, 163.891, 146.446, 158.989, 165.916, 154.768, 179.804, 140.744, 183.481, 135.026, 187.021, 124.542, 188.382, 113.241, 187.021, 98.2634, 184.706, 89.4132, 179.668, 80.6991, 177.626, 77.7037, 172.86, 74.2998, 167.278, 73.4828, 158.972, 76.0698, 140.727, 84.1031, 132.422, 85.4646, 121.121, 84.2392, 117.989, 83.15, 116.083, 80.4268 )
